[
  { "update_by": 4, "prodId": 1, "bid": 23100, "updateDate": 1649353225300 },
  { "update_by": 5, "prodId": 1, "bid": 23000, "updateDate": 1649266825300 },
  { "update_by": 1, "prodId": 1, "bid": 22900, "updateDate": 1649180425300 },
  { "update_by": 6, "prodId": 1, "bid": 22800, "updateDate": 1649094025300 },
  { "update_by": 7, "prodId": 1, "bid": 22700, "updateDate": 1649007625300 },
  { "update_by": 2, "prodId": 1, "bid": 22600, "updateDate": 1648921225300 },
  { "update_by": 10, "prodId": 1, "bid": 22500, "updateDate": 1648834825300 },
  { "update_by": 3, "prodId": 1, "bid": 22400, "updateDate": 1648748425300 },
  { "update_by": 10, "prodId": 1, "bid": 22300, "updateDate": 1648662025300 },
  { "update_by": 10, "prodId": 1, "bid": 22200, "updateDate": 1648575625300 },
  { "update_by": 4, "prodId": 2, "bid": 23100, "updateDate": 1649353225300 },
  { "update_by": 5, "prodId": 2, "bid": 22900, "updateDate": 1649266825300 },
  { "update_by": 1, "prodId": 2, "bid": 22700, "updateDate": 1649180425300 },
  { "update_by": 6, "prodId": 2, "bid": 22500, "updateDate": 1649094025300 },
  { "update_by": 7, "prodId": 2, "bid": 22300, "updateDate": 1649007625300 },
  { "update_by": 2, "prodId": 2, "bid": 22100, "updateDate": 1648921225300 },
  { "update_by": 10, "prodId": 2, "bid": 21900, "updateDate": 1648834825300 },
  { "update_by": 3, "prodId": 2, "bid": 21700, "updateDate": 1648748425300 },
  { "update_by": 10, "prodId": 2, "bid": 21500, "updateDate": 1648662025300 },
  { "update_by": 10, "prodId": 2, "bid": 21300, "updateDate": 1648575625300 },
  { "update_by": 4, "prodId": 3, "bid": 23100, "updateDate": 1649353225300 },
  { "update_by": 5, "prodId": 3, "bid": 23000, "updateDate": 1649266825300 },
  { "update_by": 1, "prodId": 3, "bid": 22900, "updateDate": 1649180425300 },
  { "update_by": 6, "prodId": 3, "bid": 22800, "updateDate": 1649094025300 },
  { "update_by": 7, "prodId": 3, "bid": 22700, "updateDate": 1649007625300 },
  { "update_by": 2, "prodId": 3, "bid": 22600, "updateDate": 1648921225300 },
  { "update_by": 10, "prodId": 3, "bid": 22500, "updateDate": 1648834825300 },
  { "update_by": 3, "prodId": 3, "bid": 22400, "updateDate": 1648748425300 },
  { "update_by": 10, "prodId": 3, "bid": 22300, "updateDate": 1648662025300 },
  { "update_by": 10, "prodId": 3, "bid": 22200, "updateDate": 1648575625300 },
  { "update_by": 4, "prodId": 4, "bid": 23100, "updateDate": 1649353225300 },
  { "update_by": 5, "prodId": 4, "bid": 22900, "updateDate": 1649266825300 },
  { "update_by": 1, "prodId": 4, "bid": 22700, "updateDate": 1649180425300 },
  { "update_by": 6, "prodId": 4, "bid": 22500, "updateDate": 1649094025300 },
  { "update_by": 7, "prodId": 4, "bid": 22300, "updateDate": 1649007625300 },
  { "update_by": 2, "prodId": 4, "bid": 22100, "updateDate": 1648921225300 },
  { "update_by": 10, "prodId": 4, "bid": 21900, "updateDate": 1648834825300 },
  { "update_by": 3, "prodId": 4, "bid": 21700, "updateDate": 1648748425300 },
  { "update_by": 10, "prodId": 4, "bid": 21500, "updateDate": 1648662025300 },
  { "update_by": 10, "prodId": 4, "bid": 21300, "updateDate": 1648575625300 },
  { "update_by": 4, "prodId": 5, "bid": 23100, "updateDate": 1649353225300 },
  { "update_by": 5, "prodId": 5, "bid": 22800, "updateDate": 1649266825300 },
  { "update_by": 1, "prodId": 5, "bid": 22500, "updateDate": 1649180425300 },
  { "update_by": 6, "prodId": 5, "bid": 22200, "updateDate": 1649094025300 },
  { "update_by": 7, "prodId": 5, "bid": 21900, "updateDate": 1649007625300 },
  { "update_by": 2, "prodId": 5, "bid": 21600, "updateDate": 1648921225300 },
  { "update_by": 10, "prodId": 5, "bid": 21300, "updateDate": 1648834825300 },
  { "update_by": 3, "prodId": 5, "bid": 21000, "updateDate": 1648748425300 },
  { "update_by": 10, "prodId": 5, "bid": 20700, "updateDate": 1648662025300 },
  { "update_by": 10, "prodId": 5, "bid": 20400, "updateDate": 1648575625300 },
  { "update_by": 4, "prodId": 6, "bid": 23100, "updateDate": 1649353225300 },
  { "update_by": 5, "prodId": 6, "bid": 23000, "updateDate": 1649266825300 },
  { "update_by": 1, "prodId": 6, "bid": 22900, "updateDate": 1649180425300 },
  { "update_by": 6, "prodId": 6, "bid": 22800, "updateDate": 1649094025300 },
  { "update_by": 7, "prodId": 6, "bid": 22700, "updateDate": 1649007625300 },
  { "update_by": 2, "prodId": 6, "bid": 22600, "updateDate": 1648921225300 },
  { "update_by": 10, "prodId": 6, "bid": 22500, "updateDate": 1648834825300 },
  { "update_by": 3, "prodId": 6, "bid": 22400, "updateDate": 1648748425300 },
  { "update_by": 10, "prodId": 6, "bid": 22300, "updateDate": 1648662025300 },
  { "update_by": 10, "prodId": 6, "bid": 22200, "updateDate": 1648575625300 },
  { "update_by": 4, "prodId": 7, "bid": 23100, "updateDate": 1649353225300 },
  { "update_by": 5, "prodId": 7, "bid": 23000, "updateDate": 1649266825300 },
  { "update_by": 1, "prodId": 7, "bid": 22900, "updateDate": 1649180425300 },
  { "update_by": 6, "prodId": 7, "bid": 22800, "updateDate": 1649094025300 },
  { "update_by": 7, "prodId": 7, "bid": 22700, "updateDate": 1649007625300 },
  { "update_by": 2, "prodId": 7, "bid": 22600, "updateDate": 1648921225300 },
  { "update_by": 10, "prodId": 7, "bid": 22500, "updateDate": 1648834825300 },
  { "update_by": 3, "prodId": 7, "bid": 22400, "updateDate": 1648748425300 },
  { "update_by": 10, "prodId": 7, "bid": 22300, "updateDate": 1648662025300 },
  { "update_by": 10, "prodId": 7, "bid": 22200, "updateDate": 1648575625300 },
  { "update_by": 4, "prodId": 8, "bid": 23100, "updateDate": 1649353225300 },
  { "update_by": 5, "prodId": 8, "bid": 22900, "updateDate": 1649266825300 },
  { "update_by": 1, "prodId": 8, "bid": 22700, "updateDate": 1649180425300 },
  { "update_by": 6, "prodId": 8, "bid": 22500, "updateDate": 1649094025300 },
  { "update_by": 7, "prodId": 8, "bid": 22300, "updateDate": 1649007625300 },
  { "update_by": 2, "prodId": 8, "bid": 22100, "updateDate": 1648921225300 },
  { "update_by": 10, "prodId": 8, "bid": 21900, "updateDate": 1648834825300 },
  { "update_by": 3, "prodId": 8, "bid": 21700, "updateDate": 1648748425300 },
  { "update_by": 10, "prodId": 8, "bid": 21500, "updateDate": 1648662025300 },
  { "update_by": 10, "prodId": 8, "bid": 21300, "updateDate": 1648575625300 },
  { "update_by": 4, "prodId": 9, "bid": 23100, "updateDate": 1649353225300 },
  { "update_by": 5, "prodId": 9, "bid": 23000, "updateDate": 1649266825300 },
  { "update_by": 1, "prodId": 9, "bid": 22900, "updateDate": 1649180425300 },
  { "update_by": 6, "prodId": 9, "bid": 22800, "updateDate": 1649094025300 },
  { "update_by": 7, "prodId": 9, "bid": 22700, "updateDate": 1649007625300 },
  { "update_by": 2, "prodId": 9, "bid": 22600, "updateDate": 1648921225300 },
  { "update_by": 10, "prodId": 9, "bid": 22500, "updateDate": 1648834825300 },
  { "update_by": 3, "prodId": 9, "bid": 22400, "updateDate": 1648748425300 },
  { "update_by": 10, "prodId": 9, "bid": 22300, "updateDate": 1648662025300 },
  { "update_by": 10, "prodId": 9, "bid": 22200, "updateDate": 1648575625300 },
  { "update_by": 4, "prodId": 10, "bid": 23100, "updateDate": 1649353225300 },
  { "update_by": 5, "prodId": 10, "bid": 23000, "updateDate": 1649266825300 },
  { "update_by": 1, "prodId": 10, "bid": 22900, "updateDate": 1649180425300 },
  { "update_by": 6, "prodId": 10, "bid": 22800, "updateDate": 1649094025300 },
  { "update_by": 7, "prodId": 10, "bid": 22700, "updateDate": 1649007625300 },
  { "update_by": 2, "prodId": 10, "bid": 22600, "updateDate": 1648921225300 },
  { "update_by": 10, "prodId": 10, "bid": 22500, "updateDate": 1648834825300 },
  { "update_by": 3, "prodId": 10, "bid": 22400, "updateDate": 1648748425300 },
  { "update_by": 10, "prodId": 10, "bid": 22300, "updateDate": 1648662025300 },
  { "update_by": 10, "prodId": 10, "bid": 22200, "updateDate": 1648575625300 },
  { "update_by": 4, "prodId": 11, "bid": 23100, "updateDate": 1649353225300 },
  { "update_by": 5, "prodId": 11, "bid": 22900, "updateDate": 1649266825300 },
  { "update_by": 1, "prodId": 11, "bid": 22700, "updateDate": 1649180425300 },
  { "update_by": 6, "prodId": 11, "bid": 22500, "updateDate": 1649094025300 },
  { "update_by": 7, "prodId": 11, "bid": 22300, "updateDate": 1649007625300 },
  { "update_by": 2, "prodId": 11, "bid": 22100, "updateDate": 1648921225300 },
  { "update_by": 10, "prodId": 11, "bid": 21900, "updateDate": 1648834825300 },
  { "update_by": 3, "prodId": 11, "bid": 21700, "updateDate": 1648748425300 },
  { "update_by": 10, "prodId": 11, "bid": 21500, "updateDate": 1648662025300 },
  { "update_by": 10, "prodId": 11, "bid": 21300, "updateDate": 1648575625300 },
  { "update_by": 4, "prodId": 12, "bid": 23100, "updateDate": 1649353225300 },
  { "update_by": 5, "prodId": 12, "bid": 22900, "updateDate": 1649266825300 },
  { "update_by": 1, "prodId": 12, "bid": 22700, "updateDate": 1649180425300 },
  { "update_by": 6, "prodId": 12, "bid": 22500, "updateDate": 1649094025300 },
  { "update_by": 7, "prodId": 12, "bid": 22300, "updateDate": 1649007625300 },
  { "update_by": 2, "prodId": 12, "bid": 22100, "updateDate": 1648921225300 },
  { "update_by": 10, "prodId": 12, "bid": 21900, "updateDate": 1648834825300 },
  { "update_by": 3, "prodId": 12, "bid": 21700, "updateDate": 1648748425300 },
  { "update_by": 10, "prodId": 12, "bid": 21500, "updateDate": 1648662025300 },
  { "update_by": 10, "prodId": 12, "bid": 21300, "updateDate": 1648575625300 },
  { "update_by": 4, "prodId": 13, "bid": 23100, "updateDate": 1649353225300 },
  { "update_by": 5, "prodId": 13, "bid": 23000, "updateDate": 1649266825300 },
  { "update_by": 1, "prodId": 13, "bid": 22900, "updateDate": 1649180425300 },
  { "update_by": 6, "prodId": 13, "bid": 22800, "updateDate": 1649094025300 },
  { "update_by": 7, "prodId": 13, "bid": 22700, "updateDate": 1649007625300 },
  { "update_by": 2, "prodId": 13, "bid": 22600, "updateDate": 1648921225300 },
  { "update_by": 10, "prodId": 13, "bid": 22500, "updateDate": 1648834825300 },
  { "update_by": 3, "prodId": 13, "bid": 22400, "updateDate": 1648748425300 },
  { "update_by": 10, "prodId": 13, "bid": 22300, "updateDate": 1648662025300 },
  { "update_by": 10, "prodId": 13, "bid": 22200, "updateDate": 1648575625300 },
  { "update_by": 4, "prodId": 14, "bid": 23100, "updateDate": 1649353225300 },
  { "update_by": 5, "prodId": 14, "bid": 22800, "updateDate": 1649266825300 },
  { "update_by": 1, "prodId": 14, "bid": 22500, "updateDate": 1649180425300 },
  { "update_by": 6, "prodId": 14, "bid": 22200, "updateDate": 1649094025300 },
  { "update_by": 7, "prodId": 14, "bid": 21900, "updateDate": 1649007625300 },
  { "update_by": 2, "prodId": 14, "bid": 21600, "updateDate": 1648921225300 },
  { "update_by": 10, "prodId": 14, "bid": 21300, "updateDate": 1648834825300 },
  { "update_by": 3, "prodId": 14, "bid": 21000, "updateDate": 1648748425300 },
  { "update_by": 10, "prodId": 14, "bid": 20700, "updateDate": 1648662025300 },
  { "update_by": 10, "prodId": 14, "bid": 20400, "updateDate": 1648575625301 },
  { "update_by": 4, "prodId": 15, "bid": 23100, "updateDate": 1649353225301 },
  { "update_by": 5, "prodId": 15, "bid": 23000, "updateDate": 1649266825301 },
  { "update_by": 1, "prodId": 15, "bid": 22900, "updateDate": 1649180425301 },
  { "update_by": 6, "prodId": 15, "bid": 22800, "updateDate": 1649094025301 },
  { "update_by": 7, "prodId": 15, "bid": 22700, "updateDate": 1649007625301 },
  { "update_by": 2, "prodId": 15, "bid": 22600, "updateDate": 1648921225301 },
  { "update_by": 10, "prodId": 15, "bid": 22500, "updateDate": 1648834825301 },
  { "update_by": 3, "prodId": 15, "bid": 22400, "updateDate": 1648748425301 },
  { "update_by": 10, "prodId": 15, "bid": 22300, "updateDate": 1648662025301 },
  { "update_by": 10, "prodId": 15, "bid": 22200, "updateDate": 1648575625301 },
  { "update_by": 4, "prodId": 16, "bid": 23100, "updateDate": 1649353225301 },
  { "update_by": 5, "prodId": 16, "bid": 22900, "updateDate": 1649266825301 },
  { "update_by": 1, "prodId": 16, "bid": 22700, "updateDate": 1649180425301 },
  { "update_by": 6, "prodId": 16, "bid": 22500, "updateDate": 1649094025301 },
  { "update_by": 7, "prodId": 16, "bid": 22300, "updateDate": 1649007625301 },
  { "update_by": 2, "prodId": 16, "bid": 22100, "updateDate": 1648921225301 },
  { "update_by": 10, "prodId": 16, "bid": 21900, "updateDate": 1648834825301 },
  { "update_by": 3, "prodId": 16, "bid": 21700, "updateDate": 1648748425301 },
  { "update_by": 10, "prodId": 16, "bid": 21500, "updateDate": 1648662025301 },
  { "update_by": 10, "prodId": 16, "bid": 21300, "updateDate": 1648575625301 },
  { "update_by": 4, "prodId": 17, "bid": 23100, "updateDate": 1649353225301 },
  { "update_by": 5, "prodId": 17, "bid": 22900, "updateDate": 1649266825301 },
  { "update_by": 1, "prodId": 17, "bid": 22700, "updateDate": 1649180425301 },
  { "update_by": 6, "prodId": 17, "bid": 22500, "updateDate": 1649094025301 },
  { "update_by": 7, "prodId": 17, "bid": 22300, "updateDate": 1649007625301 },
  { "update_by": 2, "prodId": 17, "bid": 22100, "updateDate": 1648921225301 },
  { "update_by": 10, "prodId": 17, "bid": 21900, "updateDate": 1648834825301 },
  { "update_by": 3, "prodId": 17, "bid": 21700, "updateDate": 1648748425301 },
  { "update_by": 10, "prodId": 17, "bid": 21500, "updateDate": 1648662025301 },
  { "update_by": 10, "prodId": 17, "bid": 21300, "updateDate": 1648575625301 },
  { "update_by": 4, "prodId": 18, "bid": 23100, "updateDate": 1649353225301 },
  { "update_by": 5, "prodId": 18, "bid": 22900, "updateDate": 1649266825301 },
  { "update_by": 1, "prodId": 18, "bid": 22700, "updateDate": 1649180425301 },
  { "update_by": 6, "prodId": 18, "bid": 22500, "updateDate": 1649094025301 },
  { "update_by": 7, "prodId": 18, "bid": 22300, "updateDate": 1649007625301 },
  { "update_by": 2, "prodId": 18, "bid": 22100, "updateDate": 1648921225301 },
  { "update_by": 10, "prodId": 18, "bid": 21900, "updateDate": 1648834825301 },
  { "update_by": 3, "prodId": 18, "bid": 21700, "updateDate": 1648748425301 },
  { "update_by": 10, "prodId": 18, "bid": 21500, "updateDate": 1648662025301 },
  { "update_by": 10, "prodId": 18, "bid": 21300, "updateDate": 1648575625301 },
  { "update_by": 4, "prodId": 19, "bid": 23100, "updateDate": 1649353225301 },
  { "update_by": 5, "prodId": 19, "bid": 23000, "updateDate": 1649266825301 },
  { "update_by": 1, "prodId": 19, "bid": 22900, "updateDate": 1649180425301 },
  { "update_by": 6, "prodId": 19, "bid": 22800, "updateDate": 1649094025301 },
  { "update_by": 7, "prodId": 19, "bid": 22700, "updateDate": 1649007625301 },
  { "update_by": 2, "prodId": 19, "bid": 22600, "updateDate": 1648921225301 },
  { "update_by": 10, "prodId": 19, "bid": 22500, "updateDate": 1648834825301 },
  { "update_by": 3, "prodId": 19, "bid": 22400, "updateDate": 1648748425301 },
  { "update_by": 10, "prodId": 19, "bid": 22300, "updateDate": 1648662025301 },
  { "update_by": 10, "prodId": 19, "bid": 22200, "updateDate": 1648575625301 },
  { "update_by": 4, "prodId": 20, "bid": 23100, "updateDate": 1649353225301 },
  { "update_by": 5, "prodId": 20, "bid": 22900, "updateDate": 1649266825301 },
  { "update_by": 1, "prodId": 20, "bid": 22700, "updateDate": 1649180425301 },
  { "update_by": 6, "prodId": 20, "bid": 22500, "updateDate": 1649094025301 },
  { "update_by": 7, "prodId": 20, "bid": 22300, "updateDate": 1649007625301 },
  { "update_by": 2, "prodId": 20, "bid": 22100, "updateDate": 1648921225301 },
  { "update_by": 10, "prodId": 20, "bid": 21900, "updateDate": 1648834825301 },
  { "update_by": 3, "prodId": 20, "bid": 21700, "updateDate": 1648748425301 },
  { "update_by": 10, "prodId": 20, "bid": 21500, "updateDate": 1648662025301 },
  { "update_by": 10, "prodId": 20, "bid": 21300, "updateDate": 1648575625301 }
]
